{
  "rules": {
    "class-name": true,
    "comment-format": [
      true,
      "check-space"
    ],
    "indent": [
      true,
      "spaces"
    ],
    "no-duplicate-variable": true,
    "no-eval": true,
    "no-internal-module": true,
    "no-trailing-whitespace": true,
    "no-var-keyword": true,
    "one-line": [
      true,
      "check-catch",
      "check-finally",
      "check-else",
      "check-open-brace",
      "check-whitespace"
    ],
    "quotemark": [
      true,
      "single", "avoid-template"
    ],
    "semicolon": [
      true,
      "always"
    ],
    "triple-equals": [
      true,
      "allow-null-check"
    ],
    "variable-name": [
      true,
      "ban-keywords"
    ],
    "whitespace": [
      true,
      "check-branch",
      "check-decl",
      "check-operator",
      "check-separator",
      "check-type"
    ],
    "jsdoc-format": true,
    "no-consecutive-blank-lines": true,
    "one-variable-per-declaration": [
      true,
      "ignore-for-loop"
    ],
    "curly": false,
    "no-empty": true,
    "no-duplicate-key": true,
    "no-unreachable": true,
    "no-unused-expression": true,
    "no-unused-variable": true,
    "trailing-comma": [
      true,
      {
        "singleline": "never",
        "multiline": "never"
      }
    ],
    "align": [
      true,
      "parameters",
      "statements"
    ]
  }
}